Our #,Vendor #,Image (top),Image (side),Image (side2),Categories,Approx Semi-mount dwt,Stone Breakdown,Stone Count,Diamond Weight,Diamond CTTW provided,Diamond color,Diamond quality,14kt Gold Polished $1300,18kt Gold Polished $1300,Platinum Polished  $1200,setting,polish,melee,shipping from casting,shipping to customer,total 14kt,total 18kt,total Platinum
82514-0.75,70024-.75,,,,Tennis Bracelets,7.52,56 - .013PT Round,56,0.728,3/4 ct tw,G - H,VS,$605 ,868.2,"$1,497 ",168,10,400.4,20,25,3071,3729,5301
82516-1.5,70026-1.5,,,,Tennis Bracelets,6.04,74 - .02PT Round,74,1.48,1 1/2 ct tw,G - H,VS,$486 ,697.4,"$1,202 ",222,11,814,20,25,3945,4473.5,5735
82517-1,70027-1,,,,Tennis Bracelets,6.04,50 - .02PT Round,50,1,1 ct tw,G - H,VS,$486 ,697.4,"$1,202 ",150,12,550,20,25,3107.5,3636,4897.5
82519-1,70029-1,,,,Tennis Bracelets,8.94,52 - .02PT Round,52,1.04,1 ct tw,G - H,VS,$720 ,1032.9,"$1,780 ",156,13,572,20,25,3765,4547.25,6415
82527-0.75,70037-.75,,,,Tennis Bracelets,6.17,55 - .014PT Round,55,0.77,3/4 ct tw,G - H,VS,$496 ,711.95,"$1,228 ",165,14,423.5,20,25,2858.75,3398.625,4688.75
82530-1,70040-1,,,,Tennis Bracelets,10.74,50 - .02PT Round,50,1,1 ct tw,G - H,VS,$865 ,1240.9,"$2,138 ",150,15,550,20,25,4062.5,5002.25,7245
82536-0.75,70046-.75,,,,Tennis Bracelets,9.13,41 - .02PT Round,41,0.82,3/4 ct tw,G - H,VS,$735 ,1054.55,"$1,818 ",123,16,451,20,25,3425,4223.875,6132.5
82546-0.5,70056-.50,,,,Tennis Bracelets,5.66,50 - .01PT Round,50,0.5,1/2 ct tw,G - H,VS,$455 ,653.1,"$1,127 ",150,17,275,20,25,2355,2850.25,4035
82552-1.5,70062-1.5,,,,Tennis Bracelets,7.78,72 - .02PT Round,72,1.44,1 3/8 ct tw,G - H,VS,$626 ,898.3,"$1,549 ",216,18,792,20,25,4242.5,4923.25,6550
82553-0.66,70063-.66,,,,Tennis Bracelets,6.81,33 - .02PT Round,33,0.66,5/8 ct tw,G - H,VS,$548 ,786.35,"$1,356 ",99,19,363,20,25,2685,3280.875,4705
82563-0.5,70073-.50,,,,Tennis Bracelets,9,45 - .011PT Round,45,0.495,1/2 ct tw,G - H,VS,$724 ,1039,"$1,792 ",135,20,272.25,20,25,2990.625,3778.125,5660.625
82568-0.4,70078-.40,,,,Tennis Bracelets,5.72,55 - .008PT Round,55,0.44,3/8 ct tw,G - H,VS,$460 ,660.2,"$1,139 ",165,21,242,20,25,2332.5,2833,4030
82600-1,70110-1,,,,Tennis Bracelets,6.81,52 - .02PT Round,52,1.04,1 ct tw,G - H,VS,$548 ,786.35,"$1,356 ",156,22,572,20,25,3357.5,3953.375,5377.5
82659-1,70169-1,,,,Tennis Bracelets,8.36,53 - .015PT Round,53,0.795,3/4 ct tw,G - H,VS,$673 ,965.6,"$1,664 ",159,23,437.25,20,25,3343.125,4074.625,5820.625
82660-1,70170-1,,,,Tennis Bracelets,5.01,56 - .019PT Round,56,1.064,1 ct tw,G - H,VS,$403 ,578.35,$997 ,168,24,585.2,20,25,3063,3501.375,4548
82671-1,70181-1,,,,Tennis Bracelets,6.88,58 - .017PT Round,58,0.986,1 ct tw,G - H,VS,$554 ,794.8,"$1,370 ",174,25,542.3,20,25,3350.75,3952.75,5390.75
82690-3,70200-3,,,,Tennis Bracelets,14.4,152 - .02PT Round,152,3.04,3 ct tw,G - H,VS,"$1,159 ",1663,"$2,867 ",456,26,1672,20,25,8395,9655,12665
82856-2,70366-2,,,,Tennis Bracelets,18.58,152 - .013PT Round,152,1.976,2 ct tw,G - H,VS,"$1,496 ",2146.3,"$3,700 ",456,27,1086.8,20,25,7777,9402.75,13287
83005,70515,,,,Fashion Bracelets,15.49,277 - .015PT Round,277,4.155,4 1/6 ct tw,G - H,VS,"$1,297 ",1839.15,,831,28,2285.25,20,25,11215.625,12571,
83007-0.015,70517-.015,,,,Bangles,7.57,7 - .015PT Round,7,0.105,1/10 ct tw,G - H,VS,$634 ,898.95,,21,29,57.75,20,25,1966.875,2629.25,
83008,70518,,,,Bangles,25.7,119 - .0075PT Round,119,0.8925,7/8 ct tw,G - H,VS,"$2,156 ",3055.5,,357,30,490.875,20,25,7697.1875,9945.9375,
83011-0.02,70521-.02,,,,Bangles,5.25,5 - .02PT Round,5,0.1,1/10 ct tw,G - H,VS,$439 ,622.75,,15,31,55,20,25,1462.5,1921.875,
83012-0.015,70522-.015,,,,Bangles,6.36,3 - .015PT Round,3,0.045,1/20 ct tw,G - H,VS,$532 ,754.6,,9,32,24.75,20,25,1606.875,2163.375,
83022,70532,,,,Fashion Bracelets,15.66,296 - .0075PT Round,296,2.22,2 1/5 ct tw,G - H,VS,"$1,311 ",1859.1,,888,33,1221,20,25,8745,10115.25,
83023,70533,,,,Bangles,9.58,69 - .01PT Round,69,0.69,3/4 ct tw,G - H,VS,$802 ,1137.3,,207,34,379.5,20,25,3668.75,4507,
82990,70500,,,,Bangles,10.4,109 - .015PT Round,109,1.635,1 5/8 ct tw,G - H,VS,$822 ,1186,,327,35,899.25,20,25,5320.625,6230.625,
82501,70011,,,,Bangles,9.5,174 - .015PT Round,174,2.61,2 5/8 ct tw,G - H,VS,$773 ,1105.5,,522,36,1435.5,20,25,7028.75,7860,
82502,70012,,,,Bangles,11.75,"276 - .02PT Round ,108 - .015PT Round",276,7.14,7 1/8 ct tw,G - H,VS,$956 ,1367.25,,828,37,3927,20,25,14482.5,15510.625,
